[[1 1 1 1 1 0 1 0 1 1 0 0 1 1 1 0 0 0 0 0 0]
 [1 1 1 1 1 0 0 1 0 1 0 0 1 0 0 0 1 0 0 0 0]
 [1 0 1 1 1 1 1 1 1 1 1 1 0 1 0 0 0 0 0 0 0]
 [1 1 1 1 1 1 1 1 1 0 0 0 1 1 1 1 0 0 0 0 0]
 [1 1 1 1 1 1 0 1 1 0 0 0 0 1 1 0 0 0 0 0 0]
 [1 1 1 1 1 1 1 0 0 1 0 0 1 0 0 1 0 0 0 0 0]
 [1 1 1 1 1 1 1 1 1 1 1 1 0 0 0 1 0 0 0 0 0]
 [1 1 1 1 0 1 0 0 1 0 1 1 1 0 0 1 0 0 0 0 0]
 [1 1 0 1 1 1 1 0 1 0 0 0 1 0 0 1 1 1 0 0 0]
 [1 1 1 0 1 1 1 1 1 1 0 0 0 0 1 0 1 0 0 0 0]
 [1 1 1 1 1 1 1 0 1 0 1 1 0 0 1 0 1 0 1 0 0]
 [1 1 1 0 1 1 1 1 0 1 0 0 0 0 0 0 0 0 0 0 0]
 [1 1 1 1 0 1 1 1 1 0 0 1 0 1 1 1 0 0 1 0 0]
 [1 1 1 1 0 1 1 0 1 0 1 0 0 1 0 0 0 0 0 0 0]
 [1 1 1 1 1 1 1 0 1 1 0 1 1 0 0 0 0 0 0 0 0]
 [1 1 1 1 1 1 0 0 1 0 0 1 0 0 0 1 0 0 0 0 0]
 [1 1 0 1 0 1 1 1 0 0 1 1 1 1 1 0 1 0 0 0 0]
 [1 1 1 1 1 0 1 0 1 1 1 1 1 1 0 1 1 0 0 0 0]
 [1 1 1 1 1 1 1 0 1 1 1 0 0 0 0 0 1 0 1 0 0]
 [1 1 1 1 0 0 1 0 0 0 0 1 1 0 0 0 0 0 0 0 0]]
(166, 21)
[[1 1 1 1 1 0 1 0 1 1 0 0 1 1 1 0 0 0 0 0 0]
 [1 1 1 1 1 0 0 1 0 1 0 0 1 0 0 0 1 0 0 0 0]
 [1 0 1 1 1 1 1 1 1 1 1 1 0 1 0 0 0 0 0 0 0]
 [1 1 1 1 1 1 1 1 1 0 0 0 1 1 1 1 0 0 0 0 0]
 [1 1 1 1 1 1 0 1 1 0 0 0 0 1 1 0 0 0 0 0 0]]
uncorrupted error
2.53614457831
errors with corruption
2.49397590361
2.64457831325
2.74096385542
2.60240963855
2.55421686747
2.92771084337
2.74096385542
3.06626506024
3.15060240964
3.5843373494
3.99397590361
3.84337349398
3.97590361446
3.09036144578
2.92771084337
2.8313253012
2.80722891566
2.75903614458
2.68674698795
2.73493975904
2.59638554217
(166, 21)
[[1 1 1 1 1 0 1 0 1 1 0 0 1 1 1 0 0 0 0 0 0]
 [1 1 1 1 1 0 0 1 0 1 0 0 1 0 0 0 1 0 0 0 0]
 [1 0 1 1 1 1 1 1 1 1 1 1 0 1 0 0 0 0 0 0 0]
 [1 1 1 1 1 1 1 1 1 0 0 0 1 1 1 1 0 0 0 0 0]
 [1 1 1 1 1 1 0 1 1 0 0 0 0 1 1 0 0 0 0 0 0]]
uncorrupted error
2.53614457831
errors with corruption
2.49397590361
2.64457831325
2.74096385542
2.60240963855
2.55421686747
2.92771084337
2.74096385542
3.06626506024
3.15060240964
3.5843373494
3.99397590361
3.84337349398
3.97590361446
3.09036144578
2.92771084337
2.8313253012
2.80722891566
2.75903614458
2.68674698795
2.73493975904
2.59638554217
(166, 21)
[[1 1 1 1 1 0 1 0 1 1 0 0 1 1 1 0 0 0 0 0 0]
 [1 1 1 1 1 0 0 1 0 1 0 0 1 0 0 0 1 0 0 0 0]
 [1 0 1 1 1 1 1 1 1 1 1 1 0 1 0 0 0 0 0 0 0]
 [1 1 1 1 1 1 1 1 1 0 0 0 1 1 1 1 0 0 0 0 0]
 [1 1 1 1 1 1 0 1 1 0 0 0 0 1 1 0 0 0 0 0 0]]
uncorrupted error
2.53614457831
errors with corruption
2.49397590361
2.64457831325
2.74096385542
2.60240963855
2.55421686747
2.92771084337
2.74096385542
3.06626506024
3.15060240964
3.5843373494
3.99397590361
3.84337349398
3.97590361446
3.09036144578
2.92771084337
2.8313253012
2.80722891566
2.75903614458
2.68674698795
2.73493975904
2.59638554217
(166, 21)
[[1 1 1 1 1 0 1 0 1 1 0 0 1 1 1 0 0 0 0 0 0]
 [1 1 1 1 1 0 0 1 0 1 0 0 1 0 0 0 1 0 0 0 0]
 [1 0 1 1 1 1 1 1 1 1 1 1 0 1 0 0 0 0 0 0 0]
 [1 1 1 1 1 1 1 1 1 0 0 0 1 1 1 1 0 0 0 0 0]
 [1 1 1 1 1 1 0 1 1 0 0 0 0 1 1 0 0 0 0 0 0]]
uncorrupted error
2.5
errors with corruption
2.56024096386
2.60240963855
2.76506024096
2.73493975904
2.68674698795
2.79518072289
2.80722891566
3.20481927711
3.36144578313
3.63855421687
3.85542168675
3.83734939759
3.57228915663
2.99397590361
2.80120481928
2.86144578313
2.75301204819
2.93975903614
2.76506024096
2.75301204819
2.48192771084
(166, 21)
[[1 1 1 1 1 0 1 0 1 1 0 0 1 1 1 0 0 0 0 0 0]
 [1 1 1 1 1 0 0 1 0 1 0 0 1 0 0 0 1 0 0 0 0]
 [1 0 1 1 1 1 1 1 1 1 1 1 0 1 0 0 0 0 0 0 0]
 [1 1 1 1 1 1 1 1 1 0 0 0 1 1 1 1 0 0 0 0 0]
 [1 1 1 1 1 1 0 1 1 0 0 0 0 1 1 0 0 0 0 0 0]]
uncorrupted error
2.5
errors with corruption
2.56024096386
2.60240963855
2.76506024096
2.73493975904
2.68674698795
2.79518072289
2.80722891566
3.20481927711
3.36144578313
3.63855421687
3.85542168675
3.83734939759
3.57228915663
2.99397590361
2.80120481928
2.86144578313
2.75301204819
2.93975903614
2.76506024096
2.75301204819
2.48192771084
(166, 21)
[[1 1 1 1 1 0 1 0 1 1 0 0 1 1 1 0 0 0 0 0 0]
 [1 1 1 1 1 0 0 1 0 1 0 0 1 0 0 0 1 0 0 0 0]
 [1 0 1 1 1 1 1 1 1 1 1 1 0 1 0 0 0 0 0 0 0]
 [1 1 1 1 1 1 1 1 1 0 0 0 1 1 1 1 0 0 0 0 0]
 [1 1 1 1 1 1 0 1 1 0 0 0 0 1 1 0 0 0 0 0 0]]
uncorrupted error
2.5
errors with corruption
2.56024096386
2.60240963855
2.76506024096
2.73493975904
2.68674698795
2.79518072289
2.80722891566
3.20481927711
3.36144578313
3.63855421687
3.85542168675
3.83734939759
3.57228915663
2.99397590361
2.80120481928
2.86144578313
2.75301204819
2.93975903614
2.76506024096
2.75301204819
2.48192771084
(166, 21)
[[1 1 1 1 1 0 1 0 1 1 0 0 1 1 1 0 0 0 0 0 0]
 [1 1 1 1 1 0 0 1 0 1 0 0 1 0 0 0 1 0 0 0 0]
 [1 0 1 1 1 1 1 1 1 1 1 1 0 1 0 0 0 0 0 0 0]
 [1 1 1 1 1 1 1 1 1 0 0 0 1 1 1 1 0 0 0 0 0]
 [1 1 1 1 1 1 0 1 1 0 0 0 0 1 1 0 0 0 0 0 0]]
uncorrupted error
2.49397590361
errors with corruption
2.34337349398
2.55421686747
2.64457831325
2.82530120482
2.69879518072
2.60843373494
2.78313253012
3.01204819277
3.34337349398
3.66265060241
3.72891566265
3.69277108434
3.57228915663
3.09638554217
2.90963855422
2.71084337349
2.78915662651
2.6686746988
2.71084337349
2.71686746988
2.52409638554
(166, 21)
[[1 1 1 1 1 0 1 0 1 1 0 0 1 1 1 0 0 0 0 0 0]
 [1 1 1 1 1 0 0 1 0 1 0 0 1 0 0 0 1 0 0 0 0]
 [1 0 1 1 1 1 1 1 1 1 1 1 0 1 0 0 0 0 0 0 0]
 [1 1 1 1 1 1 1 1 1 0 0 0 1 1 1 1 0 0 0 0 0]
 [1 1 1 1 1 1 0 1 1 0 0 0 0 1 1 0 0 0 0 0 0]]
uncorrupted error
2.49397590361
errors with corruption
2.34337349398
2.55421686747
2.64457831325
2.82530120482
2.69879518072
2.60843373494
2.78313253012
3.01204819277
3.34337349398
3.66265060241
3.72891566265
3.69277108434
3.57228915663
3.09638554217
2.90963855422
2.71084337349
2.78915662651
2.6686746988
2.71084337349
2.71686746988
2.52409638554
(166, 21)
[[1 1 1 1 1 0 1 0 1 1 0 0 1 1 1 0 0 0 0 0 0]
 [1 1 1 1 1 0 0 1 0 1 0 0 1 0 0 0 1 0 0 0 0]
 [1 0 1 1 1 1 1 1 1 1 1 1 0 1 0 0 0 0 0 0 0]
 [1 1 1 1 1 1 1 1 1 0 0 0 1 1 1 1 0 0 0 0 0]
 [1 1 1 1 1 1 0 1 1 0 0 0 0 1 1 0 0 0 0 0 0]]
uncorrupted error
2.49397590361
errors with corruption
2.34337349398
2.55421686747
2.64457831325
2.82530120482
2.69879518072
2.60843373494
2.78313253012
3.01204819277
3.34337349398
3.66265060241
3.72891566265
3.69277108434
3.57228915663
3.09638554217
2.90963855422
2.71084337349
2.78915662651
2.6686746988
2.71084337349
2.71686746988
2.52409638554
(166, 21)
[[1 1 1 1 1 0 1 0 1 1 0 0 1 1 1 0 0 0 0 0 0]
 [1 1 1 1 1 0 0 1 0 1 0 0 1 0 0 0 1 0 0 0 0]
 [1 0 1 1 1 1 1 1 1 1 1 1 0 1 0 0 0 0 0 0 0]
 [1 1 1 1 1 1 1 1 1 0 0 0 1 1 1 1 0 0 0 0 0]
 [1 1 1 1 1 1 0 1 1 0 0 0 0 1 1 0 0 0 0 0 0]]
uncorrupted error
2.39156626506
errors with corruption
2.42771084337
2.40361445783
2.51807228916
2.56024096386
2.51204819277
2.53614457831
2.68072289157
2.99397590361
3.39156626506
3.56626506024
3.63253012048
3.59638554217
3.53012048193
3.03614457831
2.65060240964
2.82530120482
2.69277108434
2.53614457831
2.67469879518
2.66265060241
2.36746987952


Mean corruptions: 
[ 2.4620482   2.58072286  2.69698794  2.70481927  2.63313253  2.75301204
  2.76746988  3.08433735  3.29578309  3.62228916  3.83674703  3.77168679
  3.68915663  3.05783126  2.85662653  2.8036144   2.77409635  2.76385539
  2.71626506  2.72771082  2.51746986]
Stdev: 
[ 0.08684105  0.06864294  0.07743015  0.09931541  0.07409637  0.14374761
  0.03887287  0.08268603  0.09598752  0.03624989  0.12320563  0.08818462
  0.18812543  0.04509629  0.08674698  0.06215045  0.03452703  0.13112066
  0.03401877  0.02581237  0.06715991]
[165 157 149 141 133 125 117 109 101  93  85  77  69  61  53  45  37  29
  21  13   5]
(21,)
