(166, 21)
[[1 0 1 0 1 0 0 0 0 0 1 1 0 1 0 1 0 1 1 0 1]
 [1 0 1 0 1 0 0 0 0 0 1 0 0 1 1 0 0 1 0 1 0]
 [1 0 1 1 1 1 0 0 0 0 1 1 1 0 1 0 1 0 1 1 1]
 [1 1 1 0 1 0 1 1 0 0 1 1 0 1 1 0 1 0 0 1 1]
 [1 0 1 1 1 1 0 1 0 0 1 0 1 1 1 1 1 1 1 1 0]]
10
9
4
14
10
4
0
3
12
13
7
2
10
10
1
3
11
15
1
16
2
10
3
1
10
7
0
12
2
5
10
5
14
1
1
2
1
11
1
3
2
4
11
1
3
8
0
8
2
15
13
5
1
9
3
9
10
0
9
7
12
14
13
0
6
9
1
2
13
9
11
12
9
3
8
1
6
2
0
12
10
11
12
1
3
0
0
4
8
1
12
10
13
5
1
10
11
4
14
13
7
4
11
12
1
0
0
3
9
1
12
5
12
5
3
9
10
0
0
9
5
1
3
0
3
11
13
6
10
1
0
12
1
2
14
1
1
2
2
12
12
7
9
13
2
12
3
15
1
12
11
2
2
7
4
12
10
7
1
3
12
13
3
10
0
0
Average corruption:  6.3734939759
